[
    {
        "name": "free",
        "amount": 0,
        "discount_percentage": 0,
        "currency": "KES",
        "description": "Great for learning the platform",
        "max_products": 5,
        "max_product_price": 500,
        "max_distance": 50
    },
    {
        "name": "basic",
        "amount": 500,
        "discount_percentage": 14,
        "currency": "KES",
        "description": "Great for small shops",
        "max_products": 25,
        "max_product_price": 1500,
        "max_distance": 150
    },
    {
        "name": "standard",
        "amount": 1000,
        "discount_percentage": 9,
        "currency": "KES",
        "description": "Good for medium shops",
        "max_products": 50,
        "max_product_price": 10500,
        "max_distance": 250
    },
    {
        "name": "premium",
        "amount": 1500,
        "discount_percentage": 8,
        "currency": "KES",
        "description": "Great for wholesellers",
        "max_products": 150,
        "max_product_price": 100000,
        "max_distance": 1000
    },
    {
        "name": "custom",
        "amount": -1,
        "discount_percentage": -1,
        "currency": "KES",
        "description": "Contact us for more option",
        "max_products": -1,
        "max_product_price": -1,
        "max_distance": -1
    }
]